4 Tools for Automated Residual Plot Assessment: autovi and autovi.web – Advances in Artificial Intelligence for Data Visualization: Developing Computer Vision Models to Automate Reading of Data Plots,
…
The status includes the list of regression model classes (as provided by the built-in class() function), the input and output shapes of the Keras model in the standard Numpy format (Harris et al. 2020), the output node index being monitored, and the assessment result. If no check has been run yet, the assessment result will display as “UNKNOWN”.

Fitted Values and Residuals Extraction

To be able to predict visual signal strength for a residual plot, both fitted values and residuals are needed to be extracted from the regression model object supplied by the user. In R, statistical models like lm (linear model) and glm (generalized linear model) typically support the use of generic functions such as fitted() and resid() to retrieve these values. The get_fitted_and_resid() method, called by the checker, relies on these generic functions by default. However, generic functions only work with classes that have appropriate method implementations. Some regression modelling packages may not fully adhere to the stats package guidelines for implementing these functions. In such cases, overriding the method becomes necessary.

By design, the get_fitted_and_resid() method accepts a regression model object as input and returns a tibble with two columns: .fitted and .resid, representing the fitted values and residuals, respectively. If no input is supplied, the method uses the regression model object stored in the checker. Although modules in the autovi workflow make minimal assumptions about other modules, they do require strictly defined input and output formats to ensure data validation and prevent fatal bugs. Therefore, any overridden method should follow to these conventions.

checker$get_fitted_and_resid()

# A tibble: 50 × 2
   .fitted .resid
     <dbl>  <dbl>
 1   -1.85   3.85
 2   -1.85  11.8 
 3    9.95  -5.95
 4    9.95  12.1 
 5   13.9    2.12
 6   17.8   -7.81
 7   21.7   -3.74
 8   21.7    4.26
 9   21.7   12.3 
10   25.7   -8.68
# ℹ 40 more rows
…
Bootstrapping and Model Refitting

Bootstrapping a regression model typically involves sampling the observations with replacement and refitting the model with the bootstrapped data. The boot_method() method follows this bootstrapping scheme by default. It accepts a fitted regression model and a data.frame as inputs, and returns a tibble of bootstrapped residuals. If no inputs are provided, the method uses the regression model stored in the checker and the result of the get_data() method.

Note that instead of calling get_data() implicitly within the method, it is used as part of the default argument definition. This approach allows users to bypass the get_data() method entirely and directly supply a data.frame to initiate the bootstrap process. Many other methods in autovi adopt this principle when possible, where dependencies are explicitly listed in the formal arguments. This design choice enhances the reusability and isolation of modules, offers better control for testing, and simplifies the overall process.

checker$boot_method(data = checker$get_data())

# A tibble: 50 × 2
   .fitted .resid
     <dbl>  <dbl>
 1    30.0  -2.04
 2    37.6  -1.58
 3    30.0 -16.0 
 4    52.7 -10.7 
 5    15.0   1.03
 6    30.0 -10.0 
 7    56.4  11.6 
 8    22.5   3.50
 9    37.6  42.4 
10    26.3  -9.27
# ℹ 40 more rows
…
checker$null_method()

# A tibble: 50 × 2
   .fitted .resid
     <dbl>  <dbl>
 1   -1.85 -19.0 
 2   -1.85 -17.0 
 3    9.95   3.77
 4    9.95  19.7 
 5   13.9    7.26
 6   17.8  -12.5 
 7   21.7   -2.14
 8   21.7   15.4 
 9   21.7  -19.9 
10   25.7    6.28
# ℹ 40 more rows
…
The argument extract_feature_from_layer is also available in other functions that build on the vss() method, including null_vss(), boot_vss(), and check().

The package provides tools for analyzing these extracted features through the feature_pca() method and its associated visualization method, feature_pca_plot(). The feature_pca() method performs principal component analysis (PCA) on the features to reduce their dimensionality. However, it requires that a check() is performed first, as it relies on results stored in check_result. Alternatively, you can manually provide features using the feature, null_feature, and boot_feature arguments for the true residual plot, null plots, and bootstrapped plots, respectively. The feature_pca() method returns a tibble containing both the original features and the principal components. The rotation matrix and standard deviations of each principal component are stored as attributes.

checker$check(null_draws = 100L,
              boot_draws = 100L,
              extract_feature_from_layer = "global_max_pooling2d")
checker$feature_pca()

# A tibble: 201 × 458
     f_1   f_2   f_3   f_4   f_5    f_6     f_7    f_8   f_9   f_10   f_11
   <dbl> <dbl> <dbl> <dbl> <dbl>  <dbl>   <dbl>  <dbl> <dbl>  <dbl>  <dbl>
 1 0.151 0     0     0     0     0.0203 0.109   0.0203 0     0.0834 0     
 2 1.17  1.87  2.10  1.99  0.646 0.806  1.16    1.12   1.11  0.230  1.77  
 3 0.898 1.95  1.89  1.98  0.683 0.783  1.09    1.03   1.08  0.401  1.62  
 4 0.699 2.64  2.41  3.27  1.41  1.29   1.94    1.50   1.26  1.16   2.50  
 5 0.494 1.22  0.836 0.867 0     0.212  0.231   0.172  0.835 0      0.589 
 6 0.356 0.912 0.203 0.589 0     0      0.0225  0.142  0.485 0.0311 0.162 
 7 0.514 1.25  0.817 0.900 0     0.165  0.176   0.172  0.833 0      0.589 
 8 1.13  2.15  2.30  2.26  0.785 0.932  1.31    1.21   1.25  0.363  1.95  
 9 0.270 0.795 0.123 0.438 0     0      0       0.0272 0.501 0      0.0608
10 0.245 0.807 0     0.357 0     0      0.00358 0.0494 0.426 0      0     
# ℹ 191 more rows
# ℹ 447 more variables: f_12 <dbl>, f_13 <dbl>, f_14 <dbl>, f_15 <dbl>,
#   f_16 <dbl>, f_17 <dbl>, f_18 <dbl>, f_19 <dbl>, f_20 <dbl>, f_21 <dbl>,
#   f_22 <dbl>, f_23 <dbl>, f_24 <dbl>, f_25 <dbl>, f_26 <dbl>, f_27 <dbl>,
#   f_28 <dbl>, f_29 <dbl>, f_30 <dbl>, f_31 <dbl>, f_32 <dbl>, f_33 <dbl>,
#   f_34 <dbl>, f_35 <dbl>, f_36 <dbl>, f_37 <dbl>, f_38 <dbl>, f_39 <dbl>,
#   f_40 <dbl>, f_41 <dbl>, f_42 <dbl>, f_43 <dbl>, f_44 <dbl>, f_45 <dbl>, …
…
To register a method for an extended class, you need to pass the class as the first argument and the method as a named argument to the bandicoot::register_method() function. Within a method, self can be used as a reference to the class or object environment. The following code example overrides the null_method() with a function that simulates null residuals from the corresponding normal distribution. This approach differs from the default null residual simulation scheme described in Section 4.2.4.6. Although less efficient than the default method for linear regression models, it provides an alternative way to simulate null residuals. This method is particularly useful when the fitted model is unavailable, and only the fitted values and residuals are accessible, as discussed in Section 4.3.

# A tibble: 50 × 2
   .fitted .resid
     <dbl>  <dbl>
 1   -1.85 -16.8 
 2   -1.85   7.40
 3    9.95 -25.5 
 4    9.95  15.9 
 5   13.9    1.82
 6   17.8   -6.60
 7   21.7   -8.77
 8   21.7   19.6 
 9   21.7  -10.8 
10   25.7   16.2 
# ℹ 40 more rows
…
