Appendix C — Appendix to “Software for Automated Residual Plot Assessment: autovi and autovi.web” – Advances in Artificial Intelligence for Data Visualization: Developing Computer Vision Models to Aut
…
bandicoot::register_method(
  EXT_AUTO_VI, 
  null_method = function(fitted_model = self$fitted_model) {
    data <- self$get_fitted_and_resid(fitted_model)
    residual_sd <- sd(data$.resid)
    data$.resid <- rnorm(nrow(data),
                         sd = residual_sd)
    return(data)
  }
)

EXT_AUTO_VI$null_method(lm(dist ~ speed, data = cars))

# A tibble: 50 × 2
   .fitted  .resid
     <dbl>   <dbl>
 1   -1.85  -0.389
 2   -1.85 -10.7  
 3    9.95   2.84 
 4    9.95  -7.52 
 5   13.9   -7.80 
 6   17.8   22.4  
 7   21.7    8.92 
 8   21.7  -10.6  
 9   21.7  -10.2  
10   25.7   14.7  
# ℹ 40 more rows
…
