…
::: {.cell}

```{.r .cell-code}
checker$get_fitted_and_resid()
```

::: {.cell-output .cell-output-stdout}

```
# A tibble: 50 x 2
   .fitted .resid
     <dbl>  <dbl>
 1   -1.85   3.85
 2   -1.85  11.8 
 3    9.95  -5.95
 4    9.95  12.1 
 5   13.9    2.12
 6   17.8   -7.81
 7   21.7   -3.74
 8   21.7    4.26
 9   21.7   12.3 
10   25.7   -8.68
# i 40 more rows
```
…
::: {.cell}

```{.r .cell-code}
checker$boot_method(data = checker$get_data())
```

::: {.cell-output .cell-output-stdout}

```
# A tibble: 50 x 2
   .fitted .resid
     <dbl>  <dbl>
 1    30.0  -2.04
 2    37.6  -1.58
 3    30.0 -16.0 
 4    52.7 -10.7 
 5    15.0   1.03
 6    30.0 -10.0 
 7    56.4  11.6 
 8    22.5   3.50
 9    37.6  42.4 
10    26.3  -9.27
# i 40 more rows
```
…
::: {.cell}

```{.r .cell-code}
checker$null_method()
```

::: {.cell-output .cell-output-stdout}

```
# A tibble: 50 x 2
   .fitted .resid
     <dbl>  <dbl>
 1   -1.85 -19.0 
 2   -1.85 -17.0 
 3    9.95   3.77
 4    9.95  19.7 
 5   13.9    7.26
 6   17.8  -12.5 
 7   21.7   -2.14
 8   21.7   15.4 
 9   21.7  -19.9 
10   25.7    6.28
# i 40 more rows
```
…
::: {.cell}

```{.r .cell-code}
checker$check(null_draws = 100L,
              boot_draws = 100L,
              extract_feature_from_layer = "global_max_pooling2d")
checker$feature_pca()
```

::: {.cell-output .cell-output-stdout}

```
# A tibble: 201 x 458
     f_1   f_2   f_3   f_4   f_5    f_6     f_7    f_8   f_9   f_10   f_11
   <dbl> <dbl> <dbl> <dbl> <dbl>  <dbl>   <dbl>  <dbl> <dbl>  <dbl>  <dbl>
 1 0.151 0     0     0     0     0.0203 0.109   0.0203 0     0.0834 0     
 2 1.17  1.87  2.10  1.99  0.646 0.806  1.16    1.12   1.11  0.230  1.77  
 3 0.898 1.95  1.89  1.98  0.683 0.783  1.09    1.03   1.08  0.401  1.62  
 4 0.699 2.64  2.41  3.27  1.41  1.29   1.94    1.50   1.26  1.16   2.50  
 5 0.494 1.22  0.836 0.867 0     0.212  0.231   0.172  0.835 0      0.589 
 6 0.356 0.912 0.203 0.589 0     0      0.0225  0.142  0.485 0.0311 0.162 
 7 0.514 1.25  0.817 0.900 0     0.165  0.176   0.172  0.833 0      0.589 
 8 1.13  2.15  2.30  2.26  0.785 0.932  1.31    1.21   1.25  0.363  1.95  
 9 0.270 0.795 0.123 0.438 0     0      0       0.0272 0.501 0      0.0608
10 0.245 0.807 0     0.357 0     0      0.00358 0.0494 0.426 0      0     
# i 191 more rows
# i 447 more variables: f_12 <dbl>, f_13 <dbl>, f_14 <dbl>, f_15 <dbl>,
#   f_16 <dbl>, f_17 <dbl>, f_18 <dbl>, f_19 <dbl>, f_20 <dbl>, f_21 <dbl>,
#   f_22 <dbl>, f_23 <dbl>, f_24 <dbl>, f_25 <dbl>, f_26 <dbl>, f_27 <dbl>,
#   f_28 <dbl>, f_29 <dbl>, f_30 <dbl>, f_31 <dbl>, f_32 <dbl>, f_33 <dbl>,
#   f_34 <dbl>, f_35 <dbl>, f_36 <dbl>, f_37 <dbl>, f_38 <dbl>, f_39 <dbl>,
#   f_40 <dbl>, f_41 <dbl>, f_42 <dbl>, f_43 <dbl>, f_44 <dbl>, f_45 <dbl>, ...
```
…
To register a method for an extended class, you need to pass the class as the first argument and the method as a named argument to the `bandicoot::register_method()` function. Within a method, `self` can be used as a reference to the class or object environment. The following code example overrides the `null_method()` with a function that simulates null residuals from the corresponding normal distribution. This approach differs from the default null residual simulation scheme described in @sec-autovi-null-method. Although less efficient than the default method for linear regression models, it provides an alternative way to simulate null residuals. This method is particularly useful when the fitted model is unavailable, and only the fitted values and residuals are accessible, as discussed in @sec-autovi-web.






::: {.cell}
::: {.cell-output .cell-output-stdout}

```
# A tibble: 50 x 2
   .fitted .resid
     <dbl>  <dbl>
 1   -1.85 -16.8 
 2   -1.85   7.40
 3    9.95 -25.5 
 4    9.95  15.9 
 5   13.9    1.82
 6   17.8   -6.60
 7   21.7   -8.77
 8   21.7   19.6 
 9   21.7  -10.8 
10   25.7   16.2 
# i 40 more rows
```
…
