…
::: {.cell}

```{.r .cell-code}
checker$get_fitted_and_resid()
```

::: {.cell-output .cell-output-stdout}

```
# A tibble: 50 × 2
   .fitted .resid
     <dbl>  <dbl>
 1   -1.85   3.85
 2   -1.85  11.8 
 3    9.95  -5.95
 4    9.95  12.1 
 5   13.9    2.12
 6   17.8   -7.81
 7   21.7   -3.74
 8   21.7    4.26
 9   21.7   12.3 
10   25.7   -8.68
# ℹ 40 more rows
```
…
::: {.cell}

```{.r .cell-code}
checker$null_method()
```

::: {.cell-output .cell-output-stdout}

```
# A tibble: 50 × 2
   .fitted  .resid
     <dbl>   <dbl>
 1   -1.85   0.297
 2   -1.85 -15.3  
 3    9.95  18.5  
 4    9.95   3.67 
 5   13.9   29.0  
 6   17.8    2.69 
 7   21.7    2.95 
 8   21.7   -8.31 
 9   21.7  -21.2  
10   25.7   22.0  
# ℹ 40 more rows
```
…
