…
EXT_AUTO_VI$null_method(lm(dist ~ speed, data = cars))
```

::: {.cell-output .cell-output-stdout}

```
# A tibble: 50 × 2
   .fitted  .resid
     <dbl>   <dbl>
 1   -1.85  -8.35 
 2   -1.85 -13.6  
 3    9.95  -8.14 
 4    9.95  -6.01 
 5   13.9    0.695
 6   17.8   -5.77 
 7   21.7   -9.83 
 8   21.7  -16.4  
 9   21.7    2.72 
10   25.7  -13.9  
# ℹ 40 more rows
```
…
